Salt Chemotaxis
…
genes_ctx <- allgenes_data %>%
  group_by(Strain, Salt) %>%
  summarise(average = mean(CI, na.rm = TRUE),
            st_dev = sd(CI, na.rm = TRUE))

## `summarise()` has grouped output by 'Strain'. You can override using the
## `.groups` argument.

genes_ctx

## # A tibble: 48 x 4
## # Groups:   Strain [8]
##    Strain           Salt  average st_dev
##    <fct>            <fct>   <dbl>  <dbl>
##  1 wildtype (PS312) NH4Br   0.467  0.258
##  2 wildtype (PS312) NH4Cl   0.424  0.213
##  3 wildtype (PS312) NH4I    0.489  0.264
##  4 wildtype (PS312) LiCl    0.323  0.314
##  5 wildtype (PS312) NaCl    0.252  0.274
##  6 wildtype (PS312) NaAc   -0.814  0.161
##  7 gcy-22 (csu79)   NH4Br   0.813  0.146
##  8 gcy-22 (csu79)   NH4Cl   0.745  0.261
##  9 gcy-22 (csu79)   NH4I    0.808  0.175
## 10 gcy-22 (csu79)   LiCl    0.371  0.432
## # ... with 38 more rows
…
